…
```
## `summarise()` ungrouping output (override with `.groups` argument)
```

```r
maize_complete <- number_obs %>% 
  filter(obs > 34)
maize_complete
```

```
## # A tibble: 31 x 2
##    state                 obs
##    <chr>               <int>
##  1 aguascalientes         35
##  2 baja california sur    35
##  3 campeche               35
##  4 chiapas                35
##  5 chihuahua              35
##  6 coahuila               35
##  7 colima                 35
##  8 distrito federal       35
##  9 durango                35
## 10 guanajuato             35
## # … with 21 more rows
```
…
```
## `summarise()` ungrouping output (override with `.groups` argument)
```

```r
maize_complete <- number_obs %>% 
  filter(obs > 34)
maize_complete
```

```
## # A tibble: 31 x 2
##    state                 obs
##    <chr>               <int>
##  1 aguascalientes         35
##  2 baja california sur    35
##  3 campeche               35
##  4 chiapas                35
##  5 chihuahua              35
##  6 coahuila               35
##  7 colima                 35
##  8 distrito federal       35
##  9 durango                35
## 10 guanajuato             35
## # … with 21 more rows
```
…
```
## `summarise()` ungrouping output (override with `.groups` argument)
```

```r
maize_complete <- number_obs %>% 
  filter(obs > 34)
maize_complete
```

```
## # A tibble: 31 x 2
##    state                 obs
##    <chr>               <int>
##  1 aguascalientes         35
##  2 baja california sur    35
##  3 campeche               35
##  4 chiapas                35
##  5 chihuahua              35
##  6 coahuila               35
##  7 colima                 35
##  8 distrito federal       35
##  9 durango                35
## 10 guanajuato             35
## # … with 21 more rows
```
…
