Mango
…
number_obs <- mango %>% 
  group_by(state) %>% 
  summarise(obs = sum(!is.na(ag_harv)))

## `summarise()` ungrouping output (override with `.groups` argument)

mango_complete <- number_obs %>% 
  filter(obs > 34)
mango_complete

## # A tibble: 21 x 2
##    state                 obs
##    <chr>               <int>
##  1 baja california sur    37
##  2 campeche               35
##  3 chiapas                35
##  4 colima                 36
##  5 durango                35
##  6 guerrero               35
##  7 jalisco                35
##  8 mexico                 37
##  9 michoacan              35
## 10 morelos                37
## #  with 11 more rows
…
